[
  {
    "inputs": [
      {
        "internalType": "uint256",
        "name": "_start",
        "type": "uint256"
      },
      {
        "internalType": "uint256",
        "name": "_epochDuration",
        "type": "uint256"
      },
      {
        "internalType": "uint256",
        "name": "_decisionWindow",
        "type": "uint256"
      },
      {
        "internalType": "address",
        "name": "_auth",
        "type": "address"
      }
    ],
    "stateMutability": "nonpayable",
    "type": "constructor"
  },
  {
    "inputs": [
      {
        "internalType": "uint256",
        "name": "",
        "type": "uint256"
      }
    ],
    "name": "epochProps",
    "outputs": [
      {
        "internalType": "uint256",
        "name": "from",
        "type": "uint256"
      },
      {
        "internalType": "uint256",
        "name": "fromTs",
        "type": "uint256"
      },
      {
        "internalType": "uint256",
        "name": "to",
        "type": "uint256"
      },
      {
        "internalType": "uint256",
        "name": "duration",
        "type": "uint256"
      },
      {
        "internalType": "uint256",
        "name": "decisionWindow",
        "type": "uint256"
      }
    ],
    "stateMutability": "view",
    "type": "function"
  },
  {
    "inputs": [],
    "name": "epochPropsIndex",
    "outputs": [
      {
        "internalType": "uint256",
        "name": "",
        "type": "uint256"
      }
    ],
    "stateMutability": "view",
    "type": "function"
  },
  {
    "inputs": [],
    "name": "getCurrentEpoch",
    "outputs": [
      {
        "internalType": "uint32",
        "name": "",
        "type": "uint32"
      }
    ],
    "stateMutability": "view",
    "type": "function"
  },
  {
    "inputs": [],
    "name": "getCurrentEpochEnd",
    "outputs": [
      {
        "internalType": "uint256",
        "name": "",
        "type": "uint256"
      }
    ],
    "stateMutability": "view",
    "type": "function"
  },
  {
    "inputs": [],
    "name": "getCurrentEpochProps",
    "outputs": [
      {
        "components": [
          {
            "internalType": "uint256",
            "name": "from",
            "type": "uint256"
          },
          {
            "internalType": "uint256",
            "name": "fromTs",
            "type": "uint256"
          },
          {
            "internalType": "uint256",
            "name": "to",
            "type": "uint256"
          },
          {
            "internalType": "uint256",
            "name": "duration",
            "type": "uint256"
          },
          {
            "internalType": "uint256",
            "name": "decisionWindow",
            "type": "uint256"
          }
        ],
        "internalType": "struct Epochs.EpochProps",
        "name": "",
        "type": "tuple"
      }
    ],
    "stateMutability": "view",
    "type": "function"
  },
  {
    "inputs": [],
    "name": "getDecisionWindow",
    "outputs": [
      {
        "internalType": "uint256",
        "name": "",
        "type": "uint256"
      }
    ],
    "stateMutability": "view",
    "type": "function"
  },
  {
    "inputs": [],
    "name": "getEpochDuration",
    "outputs": [
      {
        "internalType": "uint256",
        "name": "",
        "type": "uint256"
      }
    ],
    "stateMutability": "view",
    "type": "function"
  },
  {
    "inputs": [],
    "name": "isDecisionWindowOpen",
    "outputs": [
      {
        "internalType": "bool",
        "name": "",
        "type": "bool"
      }
    ],
    "stateMutability": "view",
    "type": "function"
  },
  {
    "inputs": [],
    "name": "isStarted",
    "outputs": [
      {
        "internalType": "bool",
        "name": "",
        "type": "bool"
      }
    ],
    "stateMutability": "view",
    "type": "function"
  },
  {
    "inputs": [
      {
        "internalType": "uint256",
        "name": "_epochDuration",
        "type": "uint256"
      },
      {
        "internalType": "uint256",
        "name": "_decisionWindow",
        "type": "uint256"
      }
    ],
    "name": "setEpochProps",
    "outputs": [],
    "stateMutability": "nonpayable",
    "type": "function"
  },
  {
    "inputs": [],
    "name": "start",
    "outputs": [
      {
        "internalType": "uint256",
        "name": "",
        "type": "uint256"
      }
    ],
    "stateMutability": "view",
    "type": "function"
  }
]
